%YAML 1.1
%TAG !u! tag:unity3d.com,2011:
--- !u!114 &11400000
MonoBehaviour:
  m_ObjectHideFlags: 0
  m_CorrespondingSourceObject: {fileID: 0}
  m_PrefabInstance: {fileID: 0}
  m_PrefabAsset: {fileID: 0}
  m_GameObject: {fileID: 0}
  m_Enabled: 1
  m_EditorHideFlags: 0
  m_Script: {fileID: 11500000, guid: 77a332492e104dfcacffece6128be0e2, type: 3}
  m_Name: GRAYCAT Cooldown To Wander Transition
  m_EditorClassIdentifier: 
  conditions:
  - negation: 0
    condition: {fileID: 11400000, guid: 03ddfa942a7259a48b3470df5bf1d706, type: 2}
  trueState: {fileID: 11400000, guid: a9091fff390754a4b9ec0eb3af278bb8, type: 2}
  falseState: {fileID: 11400000, guid: 25f4ffbbe13c0c34484e043c2267668d, type: 2}
