%YAML 1.1
%TAG !u! tag:unity3d.com,2011:
--- !u!114 &11400000
MonoBehaviour:
  m_ObjectHideFlags: 0
  m_CorrespondingSourceObject: {fileID: 0}
  m_PrefabInstance: {fileID: 0}
  m_PrefabAsset: {fileID: 0}
  m_GameObject: {fileID: 0}
  m_Enabled: 1
  m_EditorHideFlags: 0
  m_Script: {fileID: 11500000, guid: 77a332492e104dfcacffece6128be0e2, type: 3}
  m_Name: BLACKCAT CannotSee To CleverHide Transition
  m_EditorClassIdentifier: 
  conditions:
  - negation: 0
    condition: {fileID: 11400000, guid: a4f7af7e8ea2bc846ae3040baa22f850, type: 2}
  trueState: {fileID: 11400000, guid: a9091fff390754a4b9ec0eb3af278bb8, type: 2}
  falseState: {fileID: 11400000, guid: 58e4fbdd80f6b87499ba1c03b1258252, type: 2}
