%YAML 1.1
%TAG !u! tag:unity3d.com,2011:
--- !u!114 &11400000
MonoBehaviour:
  m_ObjectHideFlags: 0
  m_CorrespondingSourceObject: {fileID: 0}
  m_PrefabInstance: {fileID: 0}
  m_PrefabAsset: {fileID: 0}
  m_GameObject: {fileID: 0}
  m_Enabled: 1
  m_EditorHideFlags: 0
  m_Script: {fileID: 11500000, guid: 282aa3888afd4b5c92774269910cc756, type: 3}
  m_Name: BLACKCAT Evade State
  m_EditorClassIdentifier: 
  entryActions:
  - {fileID: 11400000, guid: c47639b9aad05ff4e89bf16f7b4b689a, type: 2}
  actions:
  - {fileID: 11400000, guid: 0b9948f2335f97f47bc01e094f39691e, type: 2}
  exitActions: []
  transitions:
  - {fileID: 11400000, guid: aa423b759f8827e4eae7480508f33634, type: 2}
  initState: 1
