%YAML 1.1
%TAG !u! tag:unity3d.com,2011:
--- !u!114 &11400000
MonoBehaviour:
  m_ObjectHideFlags: 0
  m_CorrespondingSourceObject: {fileID: 0}
  m_PrefabInstance: {fileID: 0}
  m_PrefabAsset: {fileID: 0}
  m_GameObject: {fileID: 0}
  m_Enabled: 1
  m_EditorHideFlags: 0
  m_Script: {fileID: 11500000, guid: 282aa3888afd4b5c92774269910cc756, type: 3}
  m_Name: GRAYCAT Attack State
  m_EditorClassIdentifier: 
  entryActions:
  - {fileID: 11400000, guid: db25e8ba151cba6468a4058ddd1753a6, type: 2}
  - {fileID: 11400000, guid: 16c33dab516f6b340af942af486c810b, type: 2}
  actions: []
  exitActions: []
  transitions:
  - {fileID: 11400000, guid: 95d27112ab54ba24fa91adc708f77ef5, type: 2}
  initState: 1
