%YAML 1.1
%TAG !u! tag:unity3d.com,2011:
--- !u!114 &11400000
MonoBehaviour:
  m_ObjectHideFlags: 0
  m_CorrespondingSourceObject: {fileID: 0}
  m_PrefabInstance: {fileID: 0}
  m_PrefabAsset: {fileID: 0}
  m_GameObject: {fileID: 0}
  m_Enabled: 1
  m_EditorHideFlags: 0
  m_Script: {fileID: 11500000, guid: 282aa3888afd4b5c92774269910cc756, type: 3}
  m_Name: BLACKCAT Attack State
  m_EditorClassIdentifier: 
  entryActions:
  - {fileID: 11400000, guid: 873a9090d726be64aa2a5bfd33b55583, type: 2}
  - {fileID: 11400000, guid: b12f4c7c0408f074c9fd0d4e563d5ea5, type: 2}
  actions: []
  exitActions: []
  transitions:
  - {fileID: 11400000, guid: 446810c74bf90af42b47b8d477142de1, type: 2}
  initState: 1
