%YAML 1.1
%TAG !u! tag:unity3d.com,2011:
--- !u!1001 &2441981483448287607
PrefabInstance:
  m_ObjectHideFlags: 0
  serializedVersion: 2
  m_Modification:
    m_TransformParent: {fileID: 0}
    m_Modifications:
    - target: {fileID: -8679921383154817045, guid: 3d749b15614d2cc4db7adaf7ec5b2f6e, type: 3}
      propertyPath: m_RootOrder
      value: 0
      objectReference: {fileID: 0}
    - target: {fileID: -8679921383154817045, guid: 3d749b15614d2cc4db7adaf7ec5b2f6e, type: 3}
      propertyPath: m_LocalScale.x
      value: 2
      objectReference: {fileID: 0}
    - target: {fileID: -8679921383154817045, guid: 3d749b15614d2cc4db7adaf7ec5b2f6e, type: 3}
      propertyPath: m_LocalScale.y
      value: 2
      objectReference: {fileID: 0}
    - target: {fileID: -8679921383154817045, guid: 3d749b15614d2cc4db7adaf7ec5b2f6e, type: 3}
      propertyPath: m_LocalScale.z
      value: 2
      objectReference: {fileID: 0}
    - target: {fileID: -8679921383154817045, guid: 3d749b15614d2cc4db7adaf7ec5b2f6e, type: 3}
      propertyPath: m_LocalPosition.x
      value: -3
      objectReference: {fileID: 0}
    - target: {fileID: -8679921383154817045, guid: 3d749b15614d2cc4db7adaf7ec5b2f6e, type: 3}
      propertyPath: m_LocalPosition.y
      value: 1.5
      objectReference: {fileID: 0}
    - target: {fileID: -8679921383154817045, guid: 3d749b15614d2cc4db7adaf7ec5b2f6e, type: 3}
      propertyPath: m_LocalPosition.z
      value: -3.5000014
      objectReference: {fileID: 0}
    - target: {fileID: -8679921383154817045, guid: 3d749b15614d2cc4db7adaf7ec5b2f6e, type: 3}
      propertyPath: m_LocalRotation.w
      value: 0.70710653
      objectReference: {fileID: 0}
    - target: {fileID: -8679921383154817045, guid: 3d749b15614d2cc4db7adaf7ec5b2f6e, type: 3}
      propertyPath: m_LocalRotation.x
      value: -0
      objectReference: {fileID: 0}
    - target: {fileID: -8679921383154817045, guid: 3d749b15614d2cc4db7adaf7ec5b2f6e, type: 3}
      propertyPath: m_LocalRotation.y
      value: -0.70710707
      objectReference: {fileID: 0}
    - target: {fileID: -8679921383154817045, guid: 3d749b15614d2cc4db7adaf7ec5b2f6e, type: 3}
      propertyPath: m_LocalRotation.z
      value: -0
      objectReference: {fileID: 0}
    - target: {fileID: -8679921383154817045, guid: 3d749b15614d2cc4db7adaf7ec5b2f6e, type: 3}
      propertyPath: m_LocalEulerAnglesHint.x
      value: 0
      objectReference: {fileID: 0}
    - target: {fileID: -8679921383154817045, guid: 3d749b15614d2cc4db7adaf7ec5b2f6e, type: 3}
      propertyPath: m_LocalEulerAnglesHint.y
      value: -90
      objectReference: {fileID: 0}
    - target: {fileID: -8679921383154817045, guid: 3d749b15614d2cc4db7adaf7ec5b2f6e, type: 3}
      propertyPath: m_LocalEulerAnglesHint.z
      value: 0
      objectReference: {fileID: 0}
    - target: {fileID: -6349639568619005767, guid: 3d749b15614d2cc4db7adaf7ec5b2f6e, type: 3}
      propertyPath: m_StaticEditorFlags
      value: 5
      objectReference: {fileID: 0}
    - target: {fileID: -5488804197800943636, guid: 3d749b15614d2cc4db7adaf7ec5b2f6e, type: 3}
      propertyPath: m_Materials.Array.data[0]
      value: 
      objectReference: {fileID: 2100000, guid: 9d8154ed768050f4ea203b355113eb34, type: 2}
    - target: {fileID: 919132149155446097, guid: 3d749b15614d2cc4db7adaf7ec5b2f6e, type: 3}
      propertyPath: m_Name
      value: WindowPrefab
      objectReference: {fileID: 0}
    - target: {fileID: 919132149155446097, guid: 3d749b15614d2cc4db7adaf7ec5b2f6e, type: 3}
      propertyPath: m_StaticEditorFlags
      value: 5
      objectReference: {fileID: 0}
    - target: {fileID: 3484709514155282973, guid: 3d749b15614d2cc4db7adaf7ec5b2f6e, type: 3}
      propertyPath: m_StaticEditorFlags
      value: 5
      objectReference: {fileID: 0}
    - target: {fileID: 5435602707870738928, guid: 3d749b15614d2cc4db7adaf7ec5b2f6e, type: 3}
      propertyPath: m_Materials.Array.data[0]
      value: 
      objectReference: {fileID: 2100000, guid: 9d8154ed768050f4ea203b355113eb34, type: 2}
    - target: {fileID: 5731920322483170261, guid: 3d749b15614d2cc4db7adaf7ec5b2f6e, type: 3}
      propertyPath: m_StaticEditorFlags
      value: 5
      objectReference: {fileID: 0}
    - target: {fileID: 7027964940675578591, guid: 3d749b15614d2cc4db7adaf7ec5b2f6e, type: 3}
      propertyPath: m_IsActive
      value: 1
      objectReference: {fileID: 0}
    - target: {fileID: 7027964940675578591, guid: 3d749b15614d2cc4db7adaf7ec5b2f6e, type: 3}
      propertyPath: m_StaticEditorFlags
      value: 5
      objectReference: {fileID: 0}
    m_RemovedComponents: []
  m_SourcePrefab: {fileID: 100100000, guid: 3d749b15614d2cc4db7adaf7ec5b2f6e, type: 3}
